EESchema Schematic File Version 2
LIBS:project-rescue
LIBS:power
LIBS:device
LIBS:transistors
LIBS:conn
LIBS:linear
LIBS:regul
LIBS:74xx
LIBS:cmos4000
LIBS:adc-dac
LIBS:memory
LIBS:xilinx
LIBS:microcontrollers
LIBS:dsp
LIBS:microchip
LIBS:analog_switches
LIBS:motorola
LIBS:texas
LIBS:intel
LIBS:audio
LIBS:interface
LIBS:digital-audio
LIBS:philips
LIBS:display
LIBS:cypress
LIBS:siliconi
LIBS:opto
LIBS:atmel
LIBS:contrib
LIBS:valves
LIBS:stm32
LIBS:esp
LIBS:psu
LIBS:project-cache
EELAYER 25 0
EELAYER END
$Descr A4 11693 8268
encoding utf-8
Sheet 1 1
Title ""
Date ""
Rev ""
Comp ""
Comment1 ""
Comment2 ""
Comment3 ""
Comment4 ""
$EndDescr
$Comp
L STM32F100C D1
U 1 1 55E83025
P 4000 2300
F 0 "D1" H 4000 3900 60  0000 C CNN
F 1 "STM32F100C" H 4000 1500 60  0000 C CNN
F 2 "Housings_QFP:LQFP-48_7x7mm_Pitch0.5mm" H 4450 2250 60  0001 C CNN
F 3 "" H 4450 2250 60  0000 C CNN
	1    4000 2300
	1    0    0    -1  
$EndComp
Wire Wire Line
	6600 3100 6700 3100
Wire Wire Line
	6700 3200 6600 3200
Wire Wire Line
	6700 3300 6600 3300
Wire Wire Line
	6700 2800 6700 3800
Connection ~ 6700 3200
Wire Wire Line
	6600 2800 6700 2800
Connection ~ 6700 3100
Wire Wire Line
	6600 2600 6800 2600
Wire Wire Line
	6800 3700 6600 3700
Wire Wire Line
	6800 3500 6600 3500
Wire Wire Line
	7500 4000 8100 4000
Wire Wire Line
	6800 3600 6600 3600
Connection ~ 6800 3600
Connection ~ 6800 3500
$Comp
L GND #PWR01
U 1 1 55E8313D
P 6700 3800
F 0 "#PWR01" H 6700 3550 60  0001 C CNN
F 1 "GND" H 6700 3650 60  0000 C CNN
F 2 "" H 6700 3800 60  0000 C CNN
F 3 "" H 6700 3800 60  0000 C CNN
	1    6700 3800
	1    0    0    -1  
$EndComp
Connection ~ 6700 3300
$Comp
L INDUCTOR_SMALL L1
U 1 1 55E83212
P 8950 4000
F 0 "L1" H 8950 4100 50  0000 C CNN
F 1 "420R" H 8950 3950 50  0000 C CNN
F 2 "Capacitors_SMD:C_0805" H 8950 4000 60  0001 C CNN
F 3 "" H 8950 4000 60  0000 C CNN
	1    8950 4000
	1    0    0    -1  
$EndComp
Wire Wire Line
	6800 2600 6800 3700
Wire Wire Line
	8600 4000 8700 4000
$Comp
L C C7
U 1 1 55E8338B
P 8600 4250
F 0 "C7" H 8650 4350 50  0000 L CNN
F 1 "100n" H 8650 4150 50  0000 L CNN
F 2 "Capacitors_SMD:C_0603" H 8638 4100 30  0001 C CNN
F 3 "" H 8600 4250 60  0000 C CNN
	1    8600 4250
	1    0    0    -1  
$EndComp
Wire Wire Line
	8600 3900 8600 4100
Wire Wire Line
	8600 4500 8600 4400
$Comp
L C C8
U 1 1 55E834A7
P 9300 4250
F 0 "C8" H 9350 4350 50  0000 L CNN
F 1 "100n" H 9350 4150 50  0000 L CNN
F 2 "Capacitors_SMD:C_0603" H 9338 4100 30  0001 C CNN
F 3 "" H 9300 4250 60  0000 C CNN
	1    9300 4250
	1    0    0    -1  
$EndComp
Wire Wire Line
	9200 4000 9300 4000
Wire Wire Line
	9300 3900 9300 4100
Wire Wire Line
	9300 4500 9300 4400
$Comp
L C C4
U 1 1 55E835AF
P 7500 4250
F 0 "C4" H 7550 4350 50  0000 L CNN
F 1 "100n" H 7550 4150 50  0000 L CNN
F 2 "Capacitors_SMD:C_0603" H 7538 4100 30  0001 C CNN
F 3 "" H 7500 4250 60  0000 C CNN
	1    7500 4250
	1    0    0    -1  
$EndComp
$Comp
L C C5
U 1 1 55E83604
P 7800 4250
F 0 "C5" H 7850 4350 50  0000 L CNN
F 1 "100n" H 7850 4150 50  0000 L CNN
F 2 "Capacitors_SMD:C_0603" H 7838 4100 30  0001 C CNN
F 3 "" H 7800 4250 60  0000 C CNN
	1    7800 4250
	1    0    0    -1  
$EndComp
$Comp
L C C6
U 1 1 55E8365E
P 8100 4250
F 0 "C6" H 8150 4350 50  0000 L CNN
F 1 "100n" H 8150 4150 50  0000 L CNN
F 2 "Capacitors_SMD:C_0603" H 8138 4100 30  0001 C CNN
F 3 "" H 8100 4250 60  0000 C CNN
	1    8100 4250
	1    0    0    -1  
$EndComp
Wire Wire Line
	7500 4000 7500 4100
Wire Wire Line
	7800 3900 7800 4100
Wire Wire Line
	8100 4000 8100 4100
Connection ~ 7800 4000
Wire Wire Line
	7500 4400 7500 4500
Wire Wire Line
	7500 4500 8100 4500
Wire Wire Line
	7800 4400 7800 4600
Wire Wire Line
	8100 4500 8100 4400
Connection ~ 7800 4500
$Comp
L GND #PWR02
U 1 1 55E839E7
P 7800 4600
F 0 "#PWR02" H 7800 4350 60  0001 C CNN
F 1 "GND" H 7800 4450 60  0000 C CNN
F 2 "" H 7800 4600 60  0000 C CNN
F 3 "" H 7800 4600 60  0000 C CNN
	1    7800 4600
	1    0    0    -1  
$EndComp
$Comp
L +3V3 #PWR03
U 1 1 55E83BE2
P 7800 3900
F 0 "#PWR03" H 7800 3750 60  0001 C CNN
F 1 "+3V3" H 7800 4040 60  0000 C CNN
F 2 "" H 7800 3900 60  0000 C CNN
F 3 "" H 7800 3900 60  0000 C CNN
	1    7800 3900
	1    0    0    -1  
$EndComp
$Comp
L +3V3 #PWR04
U 1 1 55E83C39
P 7000 2700
F 0 "#PWR04" H 7000 2550 60  0001 C CNN
F 1 "+3V3" H 7000 2840 60  0000 C CNN
F 2 "" H 7000 2700 60  0000 C CNN
F 3 "" H 7000 2700 60  0000 C CNN
	1    7000 2700
	1    0    0    -1  
$EndComp
Wire Wire Line
	7000 2700 7000 2800
Wire Wire Line
	7000 2800 6800 2800
Connection ~ 6800 2800
Connection ~ 9300 4000
Connection ~ 8600 4000
$Comp
L +3V3 #PWR05
U 1 1 55E83DD1
P 8600 3900
F 0 "#PWR05" H 8600 3750 60  0001 C CNN
F 1 "+3V3" H 8600 4040 60  0000 C CNN
F 2 "" H 8600 3900 60  0000 C CNN
F 3 "" H 8600 3900 60  0000 C CNN
	1    8600 3900
	1    0    0    -1  
$EndComp
$Comp
L GND #PWR06
U 1 1 55E84053
P 8950 4600
F 0 "#PWR06" H 8950 4350 60  0001 C CNN
F 1 "GND" H 8950 4450 60  0000 C CNN
F 2 "" H 8950 4600 60  0000 C CNN
F 3 "" H 8950 4600 60  0000 C CNN
	1    8950 4600
	1    0    0    -1  
$EndComp
Wire Wire Line
	8950 4600 8950 4500
Wire Wire Line
	8600 4500 9300 4500
Connection ~ 8950 4500
Text Notes 2750 5700 0    60   ~ 0
HIGH VOLTAGE PART
Wire Wire Line
	1700 6400 1700 6300
Wire Wire Line
	1700 6800 1700 6700
Wire Wire Line
	4000 7100 3900 7100
Connection ~ 3400 7200
Wire Wire Line
	3400 7200 3400 7050
Wire Wire Line
	2700 7200 4000 7200
Wire Wire Line
	2700 6900 2700 7200
Connection ~ 2700 5900
Wire Wire Line
	2700 5900 2700 6600
Wire Wire Line
	3200 5900 4000 5900
Wire Wire Line
	3400 5900 3400 6400
Wire Wire Line
	2500 5900 2500 6200
Wire Wire Line
	2500 5900 2900 5900
Wire Wire Line
	2500 6800 2500 6500
Wire Wire Line
	2400 6800 2500 6800
Wire Wire Line
	2900 7000 2400 7000
Wire Wire Line
	1800 7000 1350 7000
Wire Wire Line
	1800 6800 1700 6800
Wire Wire Line
	4000 6000 3900 6000
Connection ~ 6000 5800
Wire Wire Line
	6000 5600 6000 5800
Wire Wire Line
	6100 5600 6000 5600
Wire Wire Line
	6600 5600 6600 5700
Wire Wire Line
	6400 5600 6600 5600
Wire Wire Line
	5800 7100 5900 7100
Wire Wire Line
	5400 7100 5500 7100
Wire Wire Line
	6600 6000 6600 6100
Connection ~ 6100 6900
Connection ~ 6100 5800
Wire Wire Line
	6300 6900 6300 6550
Wire Wire Line
	6300 5800 6300 6150
Connection ~ 6100 6700
Wire Wire Line
	6000 6700 6100 6700
Wire Wire Line
	5600 6700 5700 6700
Connection ~ 6100 6000
Wire Wire Line
	5800 6000 6100 6000
Wire Wire Line
	5800 6100 5800 6000
Wire Wire Line
	5800 6500 5800 6400
Wire Wire Line
	6100 6400 6100 6900
Wire Wire Line
	6100 5800 6100 6100
Wire Wire Line
	5900 5800 6300 5800
Wire Wire Line
	5400 6900 6300 6900
Wire Wire Line
	5400 6600 5400 7100
Connection ~ 5600 6500
Wire Wire Line
	5600 6500 5800 6500
Wire Wire Line
	5600 6400 5600 6700
Wire Wire Line
	5600 6100 5600 6000
Wire Wire Line
	4600 6600 4600 6700
Wire Wire Line
	4600 6400 4700 6400
$Comp
L GND #PWR07
U 1 1 55E86406
P 4600 6700
F 0 "#PWR07" H 4600 6450 60  0001 C CNN
F 1 "GND" H 4600 6550 60  0000 C CNN
F 2 "" H 4600 6700 60  0000 C CNN
F 3 "" H 4600 6700 60  0000 C CNN
	1    4600 6700
	1    0    0    -1  
$EndComp
$Comp
L +3V3 #PWR08
U 1 1 55E8640C
P 1700 6300
F 0 "#PWR08" H 1700 6150 60  0001 C CNN
F 1 "+3V3" H 1700 6440 60  0000 C CNN
F 2 "" H 1700 6300 60  0000 C CNN
F 3 "" H 1700 6300 60  0000 C CNN
	1    1700 6300
	1    0    0    -1  
$EndComp
$Comp
L CONN_01X02 P12
U 1 1 55E86414
P 4200 7150
F 0 "P12" H 4200 7300 50  0000 C CNN
F 1 "LOAD" V 4300 7150 50  0000 C CNN
F 2 "Connect:AK300-2" H 4200 7150 60  0001 C CNN
F 3 "" H 4200 7150 60  0000 C CNN
	1    4200 7150
	1    0    0    -1  
$EndComp
$Comp
L C C10
U 1 1 55E8641B
P 2700 6750
F 0 "C10" H 2700 6850 40  0000 L CNN
F 1 "220n" H 2706 6665 40  0000 L CNN
F 2 "Capacitors_ThroughHole:C_Rect_L13_W4_P10" H 2738 6600 30  0001 C CNN
F 3 "" H 2700 6750 60  0000 C CNN
	1    2700 6750
	-1   0    0    -1  
$EndComp
$Comp
L R R8
U 1 1 55E86422
P 3050 5900
F 0 "R8" V 3130 5900 40  0000 C CNN
F 1 "2K4" V 3057 5901 40  0000 C CNN
F 2 "Resistors_Universal:Resistor_SMD+THTuniversal_2512_RM10_HandSoldering" V 2980 5900 30  0001 C CNN
F 3 "" H 3050 5900 30  0000 C CNN
	1    3050 5900
	0    -1   -1   0   
$EndComp
$Comp
L R R11
U 1 1 55E86429
P 2500 6350
F 0 "R11" V 2580 6350 40  0000 C CNN
F 1 "200" V 2507 6351 40  0000 C CNN
F 2 "Resistors_Universal:Resistor_SMD+THTuniversal_2512_RM10_HandSoldering" V 2430 6350 30  0001 C CNN
F 3 "" H 2500 6350 30  0000 C CNN
	1    2500 6350
	-1   0    0    1   
$EndComp
Text Label 1350 7000 0    60   ~ 0
~PWR_GATE
$Comp
L R R10
U 1 1 55E86431
P 1700 6550
F 0 "R10" V 1780 6550 40  0000 C CNN
F 1 "150" V 1707 6551 40  0000 C CNN
F 2 "Resistors_SMD:R_0603" V 1630 6550 30  0001 C CNN
F 3 "" H 1700 6550 30  0000 C CNN
	1    1700 6550
	-1   0    0    1   
$EndComp
$Comp
L OPTO-TRIAC U3
U 1 1 55E86438
P 2100 6900
F 0 "U3" H 2300 7200 60  0000 C CNN
F 1 "MOC3023" H 2200 6600 60  0000 C CNN
F 2 "Sockets_DIP:DIP-6__300" H 2100 6900 60  0001 C CNN
F 3 "" H 2100 6900 60  0000 C CNN
	1    2100 6900
	1    0    0    -1  
$EndComp
$Comp
L TRIAC U4
U 1 1 55E8643F
P 3400 6800
F 0 "U4" H 3150 7150 70  0000 C CNN
F 1 "BTA12" H 3100 6550 60  0000 C CNN
F 2 "Transistors_TO-220:TO-220_Neutral123_Vertical_MountedFromLS" H 3400 6800 60  0001 C CNN
F 3 "" H 3400 6800 60  0000 C CNN
	1    3400 6800
	1    0    0    -1  
$EndComp
Text Label 3900 6000 2    60   ~ 0
HV_2
Text Label 3900 5900 2    60   ~ 0
HV_1
$Comp
L CONN_01X02 P9
U 1 1 55E86448
P 4200 5950
F 0 "P9" H 4200 6100 50  0000 C CNN
F 1 "SUPPLY" V 4300 5950 50  0000 C CNN
F 2 "Connect:AK300-2" H 4200 5950 60  0001 C CNN
F 3 "" H 4200 5950 60  0000 C CNN
	1    4200 5950
	1    0    0    -1  
$EndComp
Text Label 4600 6400 2    60   ~ 0
~ZERO_DET
$Comp
L PC817 U2
U 1 1 55E86450
P 5000 6500
F 0 "U2" H 5200 6750 60  0000 C CNN
F 1 "817С" H 5000 6250 60  0000 C CNN
F 2 "Local:SIP-4" H 5000 6500 60  0001 C CNN
F 3 "" H 5000 6500 60  0000 C CNN
	1    5000 6500
	-1   0    0    -1  
$EndComp
$Comp
L ZENER D5
U 1 1 55E86457
P 6300 6350
F 0 "D5" H 6300 6450 50  0000 C CNN
F 1 "20V" H 6300 6250 50  0000 C CNN
F 2 "Diodes_SMD:SOD-123" H 6300 6350 60  0001 C CNN
F 3 "" H 6300 6350 60  0000 C CNN
	1    6300 6350
	0    -1   1    0   
$EndComp
$Comp
L R R13
U 1 1 55E8645E
P 6100 6250
F 0 "R13" V 6180 6250 40  0000 C CNN
F 1 "330K" V 6107 6251 40  0000 C CNN
F 2 "Resistors_SMD:R_0805" V 6030 6250 30  0001 C CNN
F 3 "" H 6100 6250 30  0000 C CNN
	1    6100 6250
	-1   0    0    -1  
$EndComp
$Comp
L D D4
U 1 1 55E86465
P 5800 6250
F 0 "D4" H 5800 6350 40  0000 C CNN
F 1 "1N4148" H 5700 6150 40  0000 C CNN
F 2 "Diodes_SMD:SOD-123" H 5800 6250 60  0001 C CNN
F 3 "" H 5800 6250 60  0000 C CNN
	1    5800 6250
	0    -1   -1   0   
$EndComp
$Comp
L R R12
U 1 1 55E8646C
P 5600 6250
F 0 "R12" V 5680 6250 50  0000 C CNN
F 1 "22" V 5607 6251 50  0000 C CNN
F 2 "Resistors_SMD:R_0805" V 5530 6250 30  0001 C CNN
F 3 "" H 5600 6250 30  0000 C CNN
	1    5600 6250
	-1   0    0    -1  
$EndComp
$Comp
L C C11
U 1 1 55E86473
P 5850 6700
F 0 "C11" H 5900 6800 50  0000 L CNN
F 1 "470n" V 5950 6450 50  0000 L CNN
F 2 "Capacitors_SMD:C_0805" H 5888 6550 30  0001 C CNN
F 3 "" H 5850 6700 60  0000 C CNN
	1    5850 6700
	0    -1   1    0   
$EndComp
$Comp
L BC807-40 Q1
U 1 1 55E8647A
P 5700 5800
F 0 "Q1" H 5700 5651 40  0000 R CNN
F 1 "BC807-40" H 5700 5950 40  0000 R CNN
F 2 "Housings_SOT-23_SOT-143_TSOT-6:SOT-23" H 5500 5902 29  0001 C CNN
F 3 "" H 5700 5800 60  0000 C CNN
	1    5700 5800
	-1   0    0    -1  
$EndComp
Text Label 6600 6100 3    60   ~ 0
HV_2
Text Label 5900 7100 0    60   ~ 0
HV_1
$Comp
L R R14
U 1 1 55E86483
P 5650 7100
F 0 "R14" V 5730 7100 40  0000 C CNN
F 1 "120K" V 5657 7101 40  0000 C CNN
F 2 "Resistors_SMD:R_0805" V 5580 7100 30  0001 C CNN
F 3 "" H 5650 7100 30  0000 C CNN
	1    5650 7100
	0    -1   -1   0   
$EndComp
$Comp
L R R9
U 1 1 55E8648A
P 6600 5850
F 0 "R9" V 6680 5850 40  0000 C CNN
F 1 "120K" V 6607 5851 40  0000 C CNN
F 2 "Resistors_SMD:R_0805" V 6530 5850 30  0001 C CNN
F 3 "" H 6600 5850 30  0000 C CNN
	1    6600 5850
	-1   0    0    1   
$EndComp
$Comp
L D D3
U 1 1 55E86491
P 6250 5600
F 0 "D3" H 6250 5700 40  0000 C CNN
F 1 "1N4148" H 6150 5500 40  0000 C CNN
F 2 "Diodes_SMD:SOD-123" H 6250 5600 60  0001 C CNN
F 3 "" H 6250 5600 60  0000 C CNN
	1    6250 5600
	1    0    0    -1  
$EndComp
$Comp
L GND #PWR09
U 1 1 55E87BE1
P 9800 4550
F 0 "#PWR09" H 9800 4300 60  0001 C CNN
F 1 "GND" H 9800 4400 60  0000 C CNN
F 2 "" H 9800 4550 60  0000 C CNN
F 3 "" H 9800 4550 60  0000 C CNN
	1    9800 4550
	1    0    0    -1  
$EndComp
Text Label 10050 4050 2    60   ~ 0
RESET
$Comp
L CONN_01X04 P5
U 1 1 55E87BE8
P 10800 4350
F 0 "P5" H 10800 4600 50  0000 C CNN
F 1 "SWD" V 10900 4350 50  0000 C CNN
F 2 "Pin_Headers:Pin_Header_Straight_1x04" H 10800 4350 60  0001 C CNN
F 3 "" H 10800 4350 60  0000 C CNN
	1    10800 4350
	1    0    0    1   
$EndComp
$Comp
L +3V3 #PWR010
U 1 1 55E87BEF
P 10500 4100
F 0 "#PWR010" H 10500 3950 60  0001 C CNN
F 1 "+3V3" H 10500 4240 60  0000 C CNN
F 2 "" H 10500 4100 60  0000 C CNN
F 3 "" H 10500 4100 60  0000 C CNN
	1    10500 4100
	1    0    0    -1  
$EndComp
$Comp
L GND #PWR011
U 1 1 55E87BF5
P 10500 4600
F 0 "#PWR011" H 10500 4350 60  0001 C CNN
F 1 "GND" H 10500 4450 60  0000 C CNN
F 2 "" H 10500 4600 60  0000 C CNN
F 3 "" H 10500 4600 60  0000 C CNN
	1    10500 4600
	1    0    0    -1  
$EndComp
Text Label 10200 4300 0    60   ~ 0
SWCLK
Text Label 10200 4500 0    60   ~ 0
SWDIO
Wire Wire Line
	9800 4550 9800 4450
Wire Wire Line
	9800 4050 9800 4150
Wire Wire Line
	10600 4400 10500 4400
Wire Wire Line
	10500 4400 10500 4600
Wire Wire Line
	10600 4200 10500 4200
Wire Wire Line
	10500 4200 10500 4100
Wire Wire Line
	10600 4300 10200 4300
Wire Wire Line
	10600 4500 10200 4500
Text Label 1300 2600 2    60   ~ 0
RESET
Wire Wire Line
	1400 2600 1300 2600
Wire Wire Line
	9800 4050 10050 4050
$Comp
L C C9
U 1 1 55E88E09
P 9800 4300
F 0 "C9" H 9850 4400 50  0000 L CNN
F 1 "100n" H 9850 4200 50  0000 L CNN
F 2 "Capacitors_SMD:C_0603" H 9838 4150 30  0001 C CNN
F 3 "" H 9800 4300 60  0000 C CNN
	1    9800 4300
	1    0    0    -1  
$EndComp
$Comp
L CONN_01X02 P10
U 1 1 55E8A718
P 7200 5950
F 0 "P10" H 7200 6100 50  0000 C CNN
F 1 "LOGIC_PWR" V 7300 5900 50  0000 C CNN
F 2 "Pin_Headers:Pin_Header_Straight_1x02" H 7200 5950 60  0001 C CNN
F 3 "" H 7200 5950 60  0000 C CNN
	1    7200 5950
	-1   0    0    1   
$EndComp
Text Label 9000 5900 2    60   ~ 0
RXD
Text Label 9000 5800 2    60   ~ 0
TXD
Text Label 10200 5900 2    60   ~ 0
SDA
Text Label 10200 5800 2    60   ~ 0
SCL
$Comp
L CONN_01X02 P11
U 1 1 55E8A723
P 7900 5950
F 0 "P11" H 7900 6100 50  0000 C CNN
F 1 "LOGIC_PWR" V 8000 5900 50  0000 C CNN
F 2 "Pin_Headers:Pin_Header_Straight_1x02" H 7900 5950 60  0001 C CNN
F 3 "" H 7900 5950 60  0000 C CNN
	1    7900 5950
	-1   0    0    1   
$EndComp
Text Label 10350 5900 0    60   ~ 0
NSS
Text Label 10350 5600 0    60   ~ 0
MOSI
Text Label 10350 5700 0    60   ~ 0
MISO
Text Label 10350 5800 0    60   ~ 0
SCK
$Comp
L R R6
U 1 1 55E8A72E
P 9800 5550
F 0 "R6" V 9880 5550 40  0000 C CNN
F 1 "4K7" V 9807 5551 40  0000 C CNN
F 2 "Resistors_SMD:R_0603" V 9730 5550 30  0001 C CNN
F 3 "" H 9800 5550 30  0000 C CNN
	1    9800 5550
	-1   0    0    1   
$EndComp
$Comp
L R R7
U 1 1 55E8A735
P 10000 5550
F 0 "R7" V 10080 5550 40  0000 C CNN
F 1 "4K7" V 10007 5551 40  0000 C CNN
F 2 "Resistors_SMD:R_0603" V 9930 5550 30  0001 C CNN
F 3 "" H 10000 5550 30  0000 C CNN
	1    10000 5550
	-1   0    0    1   
$EndComp
$Comp
L CONN_01X06 P6
U 1 1 55E8A73C
P 10800 5750
F 0 "P6" H 10800 6100 50  0000 C CNN
F 1 "SPI" V 10900 5750 50  0000 C CNN
F 2 "Pin_Headers:Pin_Header_Straight_1x06" H 10800 5750 60  0001 C CNN
F 3 "" H 10800 5750 60  0000 C CNN
	1    10800 5750
	1    0    0    1   
$EndComp
$Comp
L +3V3 #PWR012
U 1 1 55E8A743
P 10500 5400
F 0 "#PWR012" H 10500 5250 60  0001 C CNN
F 1 "+3V3" H 10500 5540 60  0000 C CNN
F 2 "" H 10500 5400 60  0000 C CNN
F 3 "" H 10500 5400 60  0000 C CNN
	1    10500 5400
	1    0    0    -1  
$EndComp
$Comp
L GND #PWR013
U 1 1 55E8A749
P 10500 6100
F 0 "#PWR013" H 10500 5850 60  0001 C CNN
F 1 "GND" H 10500 5950 60  0000 C CNN
F 2 "" H 10500 6100 60  0000 C CNN
F 3 "" H 10500 6100 60  0000 C CNN
	1    10500 6100
	1    0    0    -1  
$EndComp
$Comp
L CONN_01X04 P7
U 1 1 55E8A74F
P 8600 5850
F 0 "P7" H 8600 6100 50  0000 C CNN
F 1 "UART" V 8700 5850 50  0000 C CNN
F 2 "Pin_Headers:Pin_Header_Straight_1x04" H 8600 5850 60  0001 C CNN
F 3 "" H 8600 5850 60  0000 C CNN
	1    8600 5850
	-1   0    0    1   
$EndComp
$Comp
L +3V3 #PWR014
U 1 1 55E8A756
P 8900 5600
F 0 "#PWR014" H 8900 5450 60  0001 C CNN
F 1 "+3V3" H 8900 5740 60  0000 C CNN
F 2 "" H 8900 5600 60  0000 C CNN
F 3 "" H 8900 5600 60  0000 C CNN
	1    8900 5600
	1    0    0    -1  
$EndComp
$Comp
L GND #PWR015
U 1 1 55E8A75C
P 8200 6100
F 0 "#PWR015" H 8200 5850 60  0001 C CNN
F 1 "GND" H 8200 5950 60  0000 C CNN
F 2 "" H 8200 6100 60  0000 C CNN
F 3 "" H 8200 6100 60  0000 C CNN
	1    8200 6100
	1    0    0    -1  
$EndComp
$Comp
L GND #PWR016
U 1 1 55E8A762
P 7500 6100
F 0 "#PWR016" H 7500 5850 60  0001 C CNN
F 1 "GND" H 7500 5950 60  0000 C CNN
F 2 "" H 7500 6100 60  0000 C CNN
F 3 "" H 7500 6100 60  0000 C CNN
	1    7500 6100
	1    0    0    -1  
$EndComp
$Comp
L +3V3 #PWR017
U 1 1 55E8A768
P 8200 5800
F 0 "#PWR017" H 8200 5650 60  0001 C CNN
F 1 "+3V3" H 8200 5940 60  0000 C CNN
F 2 "" H 8200 5800 60  0000 C CNN
F 3 "" H 8200 5800 60  0000 C CNN
	1    8200 5800
	1    0    0    -1  
$EndComp
$Comp
L +3V3 #PWR018
U 1 1 55E8A76E
P 7500 5800
F 0 "#PWR018" H 7500 5650 60  0001 C CNN
F 1 "+3V3" H 7500 5940 60  0000 C CNN
F 2 "" H 7500 5800 60  0000 C CNN
F 3 "" H 7500 5800 60  0000 C CNN
	1    7500 5800
	1    0    0    -1  
$EndComp
$Comp
L GND #PWR019
U 1 1 55E8A774
P 8900 6100
F 0 "#PWR019" H 8900 5850 60  0001 C CNN
F 1 "GND" H 8900 5950 60  0000 C CNN
F 2 "" H 8900 6100 60  0000 C CNN
F 3 "" H 8900 6100 60  0000 C CNN
	1    8900 6100
	1    0    0    -1  
$EndComp
$Comp
L GND #PWR020
U 1 1 55E8A77A
P 9800 6100
F 0 "#PWR020" H 9800 5850 60  0001 C CNN
F 1 "GND" H 9800 5950 60  0000 C CNN
F 2 "" H 9800 6100 60  0000 C CNN
F 3 "" H 9800 6100 60  0000 C CNN
	1    9800 6100
	1    0    0    -1  
$EndComp
$Comp
L CONN_01X04 P8
U 1 1 55E8A780
P 9300 5850
F 0 "P8" H 9300 6100 50  0000 C CNN
F 1 "I2C" V 9400 5850 50  0000 C CNN
F 2 "Pin_Headers:Pin_Header_Straight_1x04" H 9300 5850 60  0001 C CNN
F 3 "" H 9300 5850 60  0000 C CNN
	1    9300 5850
	-1   0    0    1   
$EndComp
Text Notes 8650 5200 0    60   ~ 0
INTERFACES
$Comp
L +3V3 #PWR021
U 1 1 55E8A788
P 9400 5400
F 0 "#PWR021" H 9400 5250 60  0001 C CNN
F 1 "+3V3" H 9400 5540 60  0000 C CNN
F 2 "" H 9400 5400 60  0000 C CNN
F 3 "" H 9400 5400 60  0000 C CNN
	1    9400 5400
	1    0    0    -1  
$EndComp
Wire Wire Line
	7400 5900 7500 5900
Wire Wire Line
	7500 5900 7500 5800
Wire Wire Line
	7400 6000 7500 6000
Wire Wire Line
	7500 6000 7500 6100
Wire Wire Line
	8900 6000 8900 6100
Wire Wire Line
	8800 6000 8900 6000
Wire Wire Line
	8800 5900 9000 5900
Wire Wire Line
	8800 5800 9000 5800
Wire Wire Line
	9500 5800 10200 5800
Wire Wire Line
	9500 5900 10200 5900
Wire Wire Line
	9800 6100 9800 6000
Wire Wire Line
	9800 6000 9500 6000
Wire Wire Line
	10600 5700 10350 5700
Wire Wire Line
	10600 5900 10350 5900
Wire Wire Line
	10600 5800 10350 5800
Wire Wire Line
	10600 5600 10350 5600
Wire Wire Line
	8100 5900 8200 5900
Wire Wire Line
	8200 5900 8200 5800
Wire Wire Line
	8100 6000 8200 6000
Wire Wire Line
	8200 6000 8200 6100
Wire Wire Line
	10600 6000 10500 6000
Wire Wire Line
	10500 6000 10500 6100
Wire Wire Line
	9800 5700 9800 5800
Connection ~ 9800 5800
Wire Wire Line
	10000 5700 10000 5900
Connection ~ 10000 5900
Wire Wire Line
	9800 5400 9800 5300
Wire Wire Line
	9600 5300 10000 5300
Wire Wire Line
	10600 5500 10500 5500
Wire Wire Line
	10500 5500 10500 5400
Wire Wire Line
	8800 5700 8900 5700
Wire Wire Line
	8900 5700 8900 5600
Wire Wire Line
	9600 5700 9500 5700
Wire Wire Line
	9600 5300 9600 5700
Wire Wire Line
	10000 5300 10000 5400
Connection ~ 9800 5300
Wire Wire Line
	9400 5400 9400 5500
Wire Wire Line
	9400 5500 9600 5500
Connection ~ 9600 5500
$Comp
L CONN_01X03 P3
U 1 1 55E8BE47
P 8700 2800
F 0 "P3" H 8700 3000 50  0000 C CNN
F 1 "FLOW_SENSOR" V 8800 2800 50  0000 C CNN
F 2 "Pin_Headers:Pin_Header_Straight_1x03" H 8700 2800 60  0001 C CNN
F 3 "" H 8700 2800 60  0000 C CNN
	1    8700 2800
	1    0    0    1   
$EndComp
$Comp
L CONN_01X03 P1
U 1 1 55E8BEDE
P 8700 1400
F 0 "P1" H 8700 1600 50  0000 C CNN
F 1 "PRESSURE_SENSOR" V 8800 1400 50  0000 C CNN
F 2 "Pin_Headers:Pin_Header_Straight_1x03" H 8700 1400 60  0001 C CNN
F 3 "" H 8700 1400 60  0000 C CNN
	1    8700 1400
	1    0    0    1   
$EndComp
$Comp
L CONN_01X02 P2
U 1 1 55E8BF10
P 10800 1550
F 0 "P2" H 10800 1700 50  0000 C CNN
F 1 "THERMO_SENSOR" V 10900 1550 50  0000 C CNN
F 2 "Pin_Headers:Pin_Header_Straight_1x02" H 10800 1550 60  0001 C CNN
F 3 "" H 10800 1550 60  0000 C CNN
	1    10800 1550
	1    0    0    1   
$EndComp
$Comp
L GND #PWR022
U 1 1 55E8C1F7
P 10500 3600
F 0 "#PWR022" H 10500 3350 60  0001 C CNN
F 1 "GND" H 10500 3450 60  0000 C CNN
F 2 "" H 10500 3600 60  0000 C CNN
F 3 "" H 10500 3600 60  0000 C CNN
	1    10500 3600
	1    0    0    -1  
$EndComp
Wire Wire Line
	10400 2900 10500 2900
Wire Wire Line
	10500 2800 10500 3000
$Comp
L R R4
U 1 1 55E8C5B1
P 10500 2650
F 0 "R4" V 10580 2650 50  0000 C CNN
F 1 "4K7" V 10507 2651 50  0000 C CNN
F 2 "Resistors_SMD:R_0603" V 10430 2650 30  0001 C CNN
F 3 "" H 10500 2650 30  0000 C CNN
	1    10500 2650
	-1   0    0    -1  
$EndComp
Wire Wire Line
	10500 2500 10500 2400
$Comp
L R R1
U 1 1 55E8CA1E
P 10500 1250
F 0 "R1" V 10580 1250 50  0000 C CNN
F 1 "4K7" V 10507 1251 50  0000 C CNN
F 2 "Resistors_SMD:R_0603" V 10430 1250 30  0001 C CNN
F 3 "" H 10500 1250 30  0000 C CNN
	1    10500 1250
	-1   0    0    -1  
$EndComp
$Comp
L GND #PWR023
U 1 1 55E8CA76
P 10500 1700
F 0 "#PWR023" H 10500 1450 60  0001 C CNN
F 1 "GND" H 10500 1550 60  0000 C CNN
F 2 "" H 10500 1700 60  0000 C CNN
F 3 "" H 10500 1700 60  0000 C CNN
	1    10500 1700
	1    0    0    -1  
$EndComp
Wire Wire Line
	10400 1500 10600 1500
Wire Wire Line
	10500 1500 10500 1400
Wire Wire Line
	10600 1600 10500 1600
Wire Wire Line
	10500 1600 10500 1700
Wire Wire Line
	10500 1100 10500 1000
Connection ~ 10500 1500
Connection ~ 10500 2900
Wire Wire Line
	8400 1500 8500 1500
Wire Wire Line
	8500 1300 8400 1300
Wire Wire Line
	8400 1300 8400 1200
Wire Wire Line
	8500 1400 8400 1400
$Comp
L R R2
U 1 1 55E8E4C3
P 8250 1400
F 0 "R2" V 8330 1400 50  0000 C CNN
F 1 "15K" V 8257 1401 50  0000 C CNN
F 2 "Resistors_SMD:R_0603" V 8180 1400 30  0001 C CNN
F 3 "" H 8250 1400 30  0000 C CNN
	1    8250 1400
	0    1    -1   0   
$EndComp
$Comp
L C C1
U 1 1 55E8E657
P 7800 1650
F 0 "C1" H 7850 1750 50  0000 L CNN
F 1 "470n" H 7850 1550 50  0000 L CNN
F 2 "Capacitors_SMD:C_0603" H 7838 1500 30  0001 C CNN
F 3 "" H 7800 1650 60  0000 C CNN
	1    7800 1650
	1    0    0    -1  
$EndComp
Wire Wire Line
	8100 1400 7800 1400
Wire Wire Line
	7800 1200 7800 1500
$Comp
L +3V3 #PWR024
U 1 1 55E8E8F5
P 8400 2600
F 0 "#PWR024" H 8400 2450 60  0001 C CNN
F 1 "+3V3" H 8400 2740 60  0000 C CNN
F 2 "" H 8400 2600 60  0000 C CNN
F 3 "" H 8400 2600 60  0000 C CNN
	1    8400 2600
	1    0    0    -1  
$EndComp
$Comp
L GND #PWR025
U 1 1 55E8E92A
P 8400 1600
F 0 "#PWR025" H 8400 1350 60  0001 C CNN
F 1 "GND" H 8400 1450 60  0000 C CNN
F 2 "" H 8400 1600 60  0000 C CNN
F 3 "" H 8400 1600 60  0000 C CNN
	1    8400 1600
	1    0    0    -1  
$EndComp
Wire Wire Line
	8400 1500 8400 1600
Wire Wire Line
	7800 1200 8250 1200
Connection ~ 7800 1400
Text Label 8250 1200 2    60   ~ 0
PRESSURE
Wire Wire Line
	8500 2900 8400 2900
Wire Wire Line
	8400 2900 8400 3000
Wire Wire Line
	8500 2700 8400 2700
Wire Wire Line
	8400 2700 8400 2600
$Comp
L GND #PWR026
U 1 1 55E8F812
P 8400 3000
F 0 "#PWR026" H 8400 2750 60  0001 C CNN
F 1 "GND" H 8400 2850 60  0000 C CNN
F 2 "" H 8400 3000 60  0000 C CNN
F 3 "" H 8400 3000 60  0000 C CNN
	1    8400 3000
	1    0    0    -1  
$EndComp
Wire Wire Line
	8500 2800 8100 2800
Text Label 8100 2800 0    60   ~ 0
FLOW
$Comp
L GND #PWR027
U 1 1 55E905DA
P 7800 1900
F 0 "#PWR027" H 7800 1650 60  0001 C CNN
F 1 "GND" H 7800 1750 60  0000 C CNN
F 2 "" H 7800 1900 60  0000 C CNN
F 3 "" H 7800 1900 60  0000 C CNN
	1    7800 1900
	1    0    0    -1  
$EndComp
Wire Wire Line
	7800 1800 7800 1900
$Comp
L R R3
U 1 1 55E90DEE
P 10250 1500
F 0 "R3" V 10330 1500 50  0000 C CNN
F 1 "15K" V 10257 1501 50  0000 C CNN
F 2 "Resistors_SMD:R_0603" V 10180 1500 30  0001 C CNN
F 3 "" H 10250 1500 30  0000 C CNN
	1    10250 1500
	0    1    -1   0   
$EndComp
$Comp
L R R5
U 1 1 55E90E75
P 10250 2900
F 0 "R5" V 10330 2900 50  0000 C CNN
F 1 "15K" V 10257 2901 50  0000 C CNN
F 2 "Resistors_SMD:R_0603" V 10180 2900 30  0001 C CNN
F 3 "" H 10250 2900 30  0000 C CNN
	1    10250 2900
	0    1    -1   0   
$EndComp
$Comp
L C C3
U 1 1 55E9279D
P 10000 3150
F 0 "C3" H 10050 3250 50  0000 L CNN
F 1 "470n" H 10050 3050 50  0000 L CNN
F 2 "Capacitors_SMD:C_0603" H 10038 3000 30  0001 C CNN
F 3 "" H 10000 3150 60  0000 C CNN
	1    10000 3150
	1    0    0    -1  
$EndComp
Wire Wire Line
	9500 2900 10100 2900
Wire Wire Line
	10000 2900 10000 3000
Wire Wire Line
	10000 3300 10000 3400
$Comp
L GND #PWR028
U 1 1 55E92A8C
P 10000 3400
F 0 "#PWR028" H 10000 3150 60  0001 C CNN
F 1 "GND" H 10000 3250 60  0000 C CNN
F 2 "" H 10000 3400 60  0000 C CNN
F 3 "" H 10000 3400 60  0000 C CNN
	1    10000 3400
	1    0    0    -1  
$EndComp
Connection ~ 10000 2900
Text Label 9500 2900 0    60   ~ 0
THERMO_BOX
$Comp
L C C2
U 1 1 55E934E5
P 10000 1750
F 0 "C2" H 10050 1850 50  0000 L CNN
F 1 "470n" H 10050 1650 50  0000 L CNN
F 2 "Capacitors_SMD:C_0603" H 10038 1600 30  0001 C CNN
F 3 "" H 10000 1750 60  0000 C CNN
	1    10000 1750
	1    0    0    -1  
$EndComp
$Comp
L GND #PWR029
U 1 1 55E935B9
P 10000 2000
F 0 "#PWR029" H 10000 1750 60  0001 C CNN
F 1 "GND" H 10000 1850 60  0000 C CNN
F 2 "" H 10000 2000 60  0000 C CNN
F 3 "" H 10000 2000 60  0000 C CNN
	1    10000 2000
	1    0    0    -1  
$EndComp
Wire Wire Line
	9600 1500 10100 1500
Wire Wire Line
	10000 1500 10000 1600
Wire Wire Line
	10000 1900 10000 2000
Connection ~ 10000 1500
Text Label 9600 1500 0    60   ~ 0
THERMO
Text Label 1300 2300 2    60   ~ 0
SWCLK
Text Label 1300 2200 2    60   ~ 0
SWDIO
Wire Wire Line
	1400 2200 1300 2200
Wire Wire Line
	1400 2300 1300 2300
Text Label 6700 1500 0    60   ~ 0
SCL
Wire Wire Line
	6600 1500 6700 1500
Text Label 6700 1600 0    60   ~ 0
SDA
Wire Wire Line
	6700 1600 6600 1600
Text Label 1300 1600 2    60   ~ 0
MOSI
Text Label 1300 1500 2    60   ~ 0
MISO
Text Label 1300 1400 2    60   ~ 0
SCK
Text Label 1300 1300 2    60   ~ 0
NSS
Wire Wire Line
	1400 1300 1300 1300
Wire Wire Line
	1400 1400 1300 1400
Wire Wire Line
	1400 1500 1300 1500
Wire Wire Line
	1400 1600 1300 1600
Text Label 1300 1800 2    60   ~ 0
TXD
Text Label 1300 1900 2    60   ~ 0
RXD
Wire Wire Line
	1400 1800 1300 1800
Wire Wire Line
	1400 1900 1300 1900
Text Label 1300 1100 2    60   ~ 0
PRESSURE
Wire Wire Line
	1400 1200 1300 1200
Text Label 1300 900  2    60   ~ 0
FLOW
Text Label 1300 1000 2    60   ~ 0
THERMO
Text Label 1300 1200 2    60   ~ 0
THERMO_BOX
Wire Wire Line
	1400 1000 1300 1000
Wire Wire Line
	1400 1100 1300 1100
Text Label 6700 900  0    60   ~ 0
~ZERO_DET
Wire Wire Line
	1400 2100 1300 2100
Text Label 6700 1000 0    60   ~ 0
~PWR_GATE
Wire Wire Line
	1300 2000 1400 2000
Text Notes 1650 6000 0    60   ~ 0
LOAD:\nR = 7.8 Ohm\nL = 194 mH
Wire Wire Line
	6600 1200 6700 1200
Wire Wire Line
	1400 2800 1300 2800
Wire Wire Line
	1400 3000 1300 3000
Wire Wire Line
	1400 3100 1300 3100
Wire Wire Line
	1400 3400 1300 3400
Wire Wire Line
	1400 3600 1300 3600
Wire Wire Line
	1400 3700 1300 3700
Wire Wire Line
	6600 900  6700 900 
Wire Wire Line
	6600 1000 6700 1000
Wire Wire Line
	6600 1100 6700 1100
Wire Wire Line
	6600 1300 6700 1300
Wire Wire Line
	6600 1400 6700 1400
Wire Wire Line
	6600 1700 6700 1700
Wire Wire Line
	6600 2400 6700 2400
Wire Wire Line
	6600 2300 6700 2300
Wire Wire Line
	6600 2200 6700 2200
Wire Wire Line
	6600 2100 6700 2100
Wire Wire Line
	6600 2000 6700 2000
Wire Wire Line
	6600 1900 6700 1900
Wire Wire Line
	6600 1800 6700 1800
Wire Wire Line
	1400 1700 1300 1700
Wire Wire Line
	1400 2400 1300 2400
$Comp
L GND #PWR030
U 1 1 55EABD4E
P 1300 2800
F 0 "#PWR030" H 1300 2550 60  0001 C CNN
F 1 "GND" H 1300 2650 60  0000 C CNN
F 2 "" H 1300 2800 60  0000 C CNN
F 3 "" H 1300 2800 60  0000 C CNN
	1    1300 2800
	0    1    1    0   
$EndComp
NoConn ~ 1300 3000
NoConn ~ 1300 3100
NoConn ~ 1300 3400
NoConn ~ 1300 3600
NoConn ~ 1300 3700
Wire Wire Line
	1400 900  1300 900 
NoConn ~ 1300 1700
NoConn ~ 6700 2400
NoConn ~ 6700 2300
NoConn ~ 6700 2200
NoConn ~ 6700 2100
NoConn ~ 6700 2000
NoConn ~ 6700 1900
NoConn ~ 6700 1100
NoConn ~ 6700 1200
NoConn ~ 6700 1300
NoConn ~ 6700 1400
NoConn ~ 1300 2000
$Comp
L ESP-01 D2
U 1 1 55EB6A64
P 5750 4600
F 0 "D2" H 5750 4950 60  0000 C CNN
F 1 "ESP-01" H 5750 4250 60  0000 C CNN
F 2 "Local:ESP-01" H 5350 4700 60  0001 C CNN
F 3 "" H 5350 4700 60  0000 C CNN
	1    5750 4600
	1    0    0    -1  
$EndComp
$Comp
L PSU U1
U 1 1 55EB6CEA
P 2400 5100
F 0 "U1" H 2400 5350 60  0000 C CNN
F 1 "PSU" H 2400 4850 60  0000 C CNN
F 2 "Local:YS-12V400-B" H 2400 5100 60  0001 C CNN
F 3 "" H 2400 5100 60  0000 C CNN
	1    2400 5100
	1    0    0    -1  
$EndComp
Text Label 1800 5000 2    60   ~ 0
HV_1
Text Label 1800 5200 2    60   ~ 0
HV_2
Wire Wire Line
	1800 5000 1900 5000
Wire Wire Line
	1900 5200 1800 5200
Wire Wire Line
	2900 5000 3000 5000
Wire Wire Line
	2900 5200 3000 5200
Wire Wire Line
	3900 6000 3900 7100
Connection ~ 3400 5900
Wire Wire Line
	3000 5200 3000 5300
$Comp
L GND #PWR031
U 1 1 55EB911A
P 3000 5300
F 0 "#PWR031" H 3000 5050 60  0001 C CNN
F 1 "GND" H 3000 5150 60  0000 C CNN
F 2 "" H 3000 5300 60  0000 C CNN
F 3 "" H 3000 5300 60  0000 C CNN
	1    3000 5300
	1    0    0    -1  
$EndComp
$Comp
L +3V3 #PWR032
U 1 1 55EB9365
P 3000 4900
F 0 "#PWR032" H 3000 4750 60  0001 C CNN
F 1 "+3V3" H 3000 5040 60  0000 C CNN
F 2 "" H 3000 4900 60  0000 C CNN
F 3 "" H 3000 4900 60  0000 C CNN
	1    3000 4900
	1    0    0    -1  
$EndComp
Wire Wire Line
	3000 5000 3000 4900
Wire Wire Line
	6350 4800 6450 4800
Wire Wire Line
	6450 4800 6450 4900
Wire Wire Line
	6350 4700 6450 4700
$Comp
L +3V3 #PWR033
U 1 1 55EBCDFD
P 6450 4700
F 0 "#PWR033" H 6450 4550 60  0001 C CNN
F 1 "+3V3" H 6450 4840 60  0000 C CNN
F 2 "" H 6450 4700 60  0000 C CNN
F 3 "" H 6450 4700 60  0000 C CNN
	1    6450 4700
	0    1    1    0   
$EndComp
$Comp
L GND #PWR034
U 1 1 55EBCE9F
P 6450 4900
F 0 "#PWR034" H 6450 4650 60  0001 C CNN
F 1 "GND" H 6450 4750 60  0000 C CNN
F 2 "" H 6450 4900 60  0000 C CNN
F 3 "" H 6450 4900 60  0000 C CNN
	1    6450 4900
	1    0    0    -1  
$EndComp
Wire Wire Line
	5150 4400 5050 4400
Wire Wire Line
	5150 4500 5050 4500
Wire Wire Line
	5150 4700 5050 4700
Wire Wire Line
	5150 4800 5050 4800
NoConn ~ 5050 4800
Text Label 5050 4500 2    60   ~ 0
TXD
Text Label 5050 4400 2    60   ~ 0
RXD
$Comp
L +3V3 #PWR035
U 1 1 55EC294D
P 5050 4700
F 0 "#PWR035" H 5050 4550 60  0001 C CNN
F 1 "+3V3" H 5050 4840 60  0000 C CNN
F 2 "" H 5050 4700 60  0000 C CNN
F 3 "" H 5050 4700 60  0000 C CNN
	1    5050 4700
	0    -1   -1   0   
$EndComp
Wire Wire Line
	6350 4400 6450 4400
Wire Wire Line
	6350 4500 6450 4500
NoConn ~ 6450 4400
NoConn ~ 6450 4500
$Comp
L THERMISTOR TH1
U 1 1 55ED0D5F
P 10500 3250
F 0 "TH1" V 10600 3300 50  0000 C CNN
F 1 "10K" V 10400 3250 50  0000 C BNN
F 2 "Resistors_SMD:R_0603" H 10500 3250 60  0001 C CNN
F 3 "" H 10500 3250 60  0000 C CNN
	1    10500 3250
	-1   0    0    -1  
$EndComp
Wire Wire Line
	10500 3600 10500 3500
Text Notes 11150 1950 1    60   ~ 0
NTC THERMISTOR\n100K
Text Notes 7800 950  0    60   ~ 0
OEM PRESSURE SENSOR\n\nQ1: Vout = Vcc * (0.667 * P + 0.1);\nQ1, Vcc = 3.3, P = 0.096; /* Vout = 0.54 */\nQ1, Vcc = 3.3, P = 1.2; /* Vout = 2.97 */
NoConn ~ 1300 2100
NoConn ~ 1300 2400
NoConn ~ 6700 1700
NoConn ~ 6700 1800
Text GLabel 9300 3900 1    60   Input ~ 0
VAA
Text GLabel 6900 2900 2    60   Input ~ 0
VAA
Wire Wire Line
	6600 2900 6900 2900
Text GLabel 10500 1000 1    60   Input ~ 0
VAA
Text GLabel 10500 2400 1    60   Input ~ 0
VAA
Text GLabel 8400 1200 1    60   Input ~ 0
VAA
Wire Wire Line
	5300 6400 5400 6400
Wire Wire Line
	5400 6400 5400 5500
Wire Wire Line
	5400 5500 5600 5500
Wire Wire Line
	5600 5500 5600 5600
Wire Wire Line
	5300 6600 5400 6600
Connection ~ 5400 6900
Wire Wire Line
	4700 6600 4600 6600
$EndSCHEMATC
